{
  "OS": [
    {
      "Type": "linux",
      "Version": "*"
    }
  ],
  "Software": [
    {
      "Type": "bind9",
      "Version": "*"
    }
  ],
  "Account": [
    {
      "Name": "USER_NAME",
      "Group": "*",
      "Privilege": "*",
      "Services": [
        "bind9"
      ],
      "Credentials": {
        "Credential Type": "*",
        "Requires Secret": false
      }
    }
  ],
  "Files": [
    {
      "Path": "/etc/bind/named.conf.local",
      "Permissions": {
        "User": "root",
        "Group": "root",
        "Perm": "0644"
      },
      "Content": {
        "Content Type": "NAMED_CONF_LOCAL casinolimit.bzh",
        "Requires Secret": false
      }
    },
    {
      "Path": "/etc/bind/db.casinolimit.bzh",
      "Permissions": {
        "User": "root",
        "Group": "root",
        "Perm": "0644"
      },
      "Content": {
        "Content Type": "DB.CASINOLIMIT.BZH OPTION_ARG",
        "Requires Secret": false
      }
    }
  ]
}


