[
  {
    "Name": "Data from Local System: Simple Local Website on port 80 (requires sudo privileges)",
    "Difficulty": 1,
    "Secret Preconditions": {
      "Requires": [],
      "Rewards": []
    },
    "Entry": {
      "OS": [
        {
          "Type": "linux",
          "Version": "*"
        }
      ],
      "Account": [
        {
          "Name": "root",
          "Group": "*",
          "Privilege": ".",
          "Services": [
            "python_http"
          ],
          "Credentials": {
            "Credential Type": "*",
            "Requires Secret": false
          }
        }
      ],
      "Software": [
        {
          "Type": "python",
          "Version": "*",
          "Port": "80"
        }
      ],
      "Files": [
        {
          "Path": "/var/www/html",
          "Permissions": {
            "User": "root",
            "Group": "root",
            "Perm": "0755"
          },
          "Content": {
            "Content Type": "BREIZH_CTF_PYTHON_WEBSITE",
            "Requires Secret": false
          }
        }
      ]
    }
  },
  {
    "Name": "Data from Local System: Default UNIX corpus",
    "Difficulty": 1,
    "Secret Preconditions": {
      "Requires": [],
      "Rewards": []
    },
    "Exit": {
      "OS": [
        {
          "Type": "linux",
          "Version": "*"
        }
      ],
      "Account": [
        {
          "Name": "EXIT_USER",
          "Group": "*",
          "Privilege": "*",
          "Services": [
          ],
          "Credentials": {
            "Credential Type": "*",
            "Requires Secret": false
          }
        }
      ],
      "Software": [
      ],
      "Files": [
        {
          "Path": "~/",
          "Permissions": {
            "User": "EXIT_USER",
            "Group": "EXIT_USER",
            "Perm": "0755"
          },
          "Content": {
            "Content Type": "UNIX_PICTURES",
            "Requires Secret": false
          }
        },
        {
          "Path": "~/",
          "Permissions": {
            "User": "EXIT_USER",
            "Group": "EXIT_USER",
            "Perm": "0755"
          },
          "Content": {
            "Content Type": "UNIX_DOCUMENTS",
            "Requires Secret": false
          }
        },
        {
          "Path": "~/",
          "Permissions": {
            "User": "EXIT_USER",
            "Group": "EXIT_USER",
            "Perm": "0755"
          },
          "Content": {
            "Content Type": "UNIX_IMPORTANT",
            "Requires Secret": false
          }
        },
        {
          "Path": "~/",
          "Permissions": {
            "User": "EXIT_USER",
            "Group": "EXIT_USER",
            "Perm": "0755"
          },
          "Content": {
            "Content Type": "UNIX_MUSIC",
            "Requires Secret": false
          }
        }
      ]
    }
  }
]