trade_id,stock_symbol,trade_date,trade_time,trade_price,trade_quantity,buyer_id,seller_id,trade_type,commission_fee
1,GOOGL,12/21/2018,20,806.2,468,1,1,Sell,305.1
2,AAPL,2/12/2015,12,153.53,864,2,2,Sell,568.13
3,AMZN,8/5/2016,5,591.88,757,3,3,Sell,150.9
4,GOOGL,4/15/2019,23,449.43,440,4,4,Sell,133.95
5,GOOGL,8/20/2011,5,277.55,623,5,5,Sell,633.23
6,AMZN,6/21/2014,13,694.63,504,6,6,Sell,27.92
7,AAPL,6/23/2012,1,601.53,215,7,7,Buy,12.16
8,GOOGL,5/31/2015,3,742.88,18,8,8,Buy,161.7
9,GOOGL,1/24/2018,23,688.67,33,9,9,Buy,144.5
10,AMZN,3/5/2021,12,722.35,728,10,10,Sell,513.08
11,GOOGL,5/14/2015,1,625.03,73,11,11,Sell,767.69
12,GOOGL,2/16/2011,0,581.36,265,12,12,Buy,77.09
13,AMZN,6/13/2013,14,473.35,359,13,13,Buy,964.31
14,AAPL,8/1/2019,0,556.76,891,14,14,Sell,171.47
15,AAPL,9/23/2012,2,635.8,911,15,15,Buy,303.77
16,GOOGL,9/21/2018,13,173.35,765,16,16,Buy,260.9
17,GOOGL,12/5/2019,17,707.17,472,17,17,Buy,331.38
18,AMZN,3/25/2016,5,436.42,946,18,18,Buy,696.76
19,AMZN,4/14/2017,13,864.48,74,19,19,Sell,537.27
20,GOOGL,10/31/2013,4,490.11,149,20,20,Buy,226.53
21,AMZN,9/14/2012,0,993.69,291,21,21,Buy,520.79
22,AAPL,2/20/2012,13,429.69,392,22,22,Sell,620.81
23,GOOGL,11/24/2018,16,297.85,428,23,23,Buy,273.39
24,GOOGL,3/1/2019,13,657.43,219,24,24,Sell,109.09
25,AMZN,5/25/2014,17,766.54,423,25,25,Sell,305.39
26,AMZN,10/5/2018,23,898.18,617,26,26,Sell,85.86
27,GOOGL,1/24/2010,22,51.28,691,27,27,Buy,500.65
28,GOOGL,7/8/2021,2,365.38,908,28,28,Buy,950.62
29,AMZN,7/14/2011,19,331.93,752,29,29,Sell,584.64
30,AMZN,1/24/2015,16,838.46,435,30,30,Sell,93.55
31,AAPL,8/20/2015,15,26.41,500,31,31,Sell,663.72
32,GOOGL,5/4/2010,18,963.85,644,32,32,Sell,643.65
33,AMZN,10/6/2011,6,428.92,844,33,33,Sell,683.65
34,AMZN,4/4/2014,22,418.74,820,34,34,Buy,597.2
35,AMZN,2/15/2016,11,526.65,813,35,35,Sell,950.34
36,AMZN,2/14/2013,6,478.05,471,36,36,Sell,421.6
37,GOOGL,4/5/2014,6,612.17,594,37,37,Buy,928.07
38,GOOGL,1/11/2010,20,78.17,483,38,38,Sell,820.0
39,AMZN,6/18/2021,12,323.12,87,39,39,Buy,452.97
40,AAPL,12/10/2011,8,391.42,75,40,40,Buy,227.86
41,GOOGL,3/13/2013,7,298.2,893,41,41,Sell,635.0
42,AMZN,2/9/2021,19,383.44,856,42,42,Sell,66.83
43,AAPL,3/11/2020,13,97.59,305,43,43,Sell,68.15
44,AAPL,11/26/2011,22,392.01,667,44,44,Buy,513.12
45,GOOGL,1/10/2021,6,138.95,949,45,45,Sell,334.2
46,GOOGL,12/15/2016,5,471.45,667,46,46,Buy,596.32
47,AMZN,1/21/2010,12,169.92,104,47,47,Sell,116.91
48,AAPL,11/26/2012,18,968.45,27,48,48,Buy,123.04
49,AAPL,4/24/2021,15,500.42,385,49,49,Buy,601.43
50,AMZN,11/17/2015,15,595.25,29,50,50,Buy,942.6
51,GOOGL,7/29/2021,18,227.17,877,51,51,Buy,852.49
52,AMZN,11/2/2016,22,277.98,643,52,52,Sell,892.1
53,AAPL,9/2/2020,7,677.31,53,53,53,Buy,510.77
54,AAPL,4/28/2016,17,906.07,470,54,54,Buy,630.86
55,GOOGL,6/23/2011,1,527.88,313,55,55,Sell,941.7
56,AAPL,5/22/2013,14,198.44,974,56,56,Sell,293.91
57,AAPL,10/6/2011,23,170.56,285,57,57,Sell,830.19
58,AAPL,1/13/2010,2,147.73,551,58,58,Buy,33.81
59,GOOGL,2/19/2018,3,598.96,100,59,59,Buy,751.39
60,AMZN,9/12/2013,12,486.09,853,60,60,Buy,303.23
61,AAPL,4/24/2016,6,521.78,233,61,61,Sell,110.01
62,AAPL,2/22/2013,21,971.21,108,62,62,Sell,155.99
63,GOOGL,11/14/2014,15,672.15,507,63,63,Sell,556.96
64,AMZN,9/26/2018,12,562.76,856,64,64,Sell,35.22
65,AMZN,9/11/2011,3,987.69,693,65,65,Sell,521.42
66,AAPL,6/24/2015,23,768.05,459,66,66,Sell,786.0
67,AAPL,8/10/2016,15,165.36,49,67,67,Sell,283.81
68,GOOGL,4/30/2010,4,510.69,860,68,68,Sell,338.23
69,AAPL,1/19/2020,21,957.46,155,69,69,Sell,26.75
70,AMZN,7/12/2017,8,357.4,102,70,70,Buy,408.04
71,AAPL,12/3/2021,22,976.23,880,71,71,Sell,255.82
72,AAPL,4/27/2013,21,947.9,905,72,72,Buy,778.41
73,GOOGL,5/28/2013,6,872.27,860,73,73,Sell,279.2
74,AAPL,12/12/2017,1,238.97,721,74,74,Sell,53.98
75,AAPL,6/25/2016,2,355.08,651,75,75,Sell,843.52
76,GOOGL,11/6/2011,20,120.31,866,76,76,Buy,167.86
77,AMZN,1/12/2021,6,126.79,653,77,77,Buy,376.75
78,AMZN,1/24/2016,15,279.72,29,78,78,Buy,703.29
79,AMZN,10/29/2012,4,675.39,672,79,79,Sell,94.18
80,GOOGL,12/3/2013,20,304.36,370,80,80,Sell,23.65
81,GOOGL,5/14/2019,5,102.16,280,81,81,Sell,128.84
82,AMZN,9/18/2020,7,870.21,812,82,82,Sell,459.84
83,AAPL,7/13/2013,12,447.61,973,83,83,Buy,666.64
84,AAPL,11/11/2015,5,9.71,227,84,84,Sell,164.58
85,GOOGL,11/8/2013,17,906.05,680,85,85,Sell,611.71
86,AMZN,9/8/2010,10,706.18,363,86,86,Buy,787.68
87,GOOGL,9/29/2020,12,374.0,194,87,87,Sell,872.08
88,AMZN,4/3/2015,1,141.36,43,88,88,Sell,601.03
89,AAPL,11/23/2012,17,726.43,90,89,89,Sell,693.18
90,AMZN,12/2/2013,2,374.2,232,90,90,Buy,152.04
91,GOOGL,2/12/2015,3,710.0,780,91,91,Buy,260.85
92,AMZN,7/2/2020,11,134.89,550,92,92,Sell,993.33
93,AAPL,8/17/2010,14,578.76,499,93,93,Sell,750.69
94,AAPL,4/14/2011,16,799.58,320,94,94,Buy,264.22
95,AAPL,12/8/2015,17,664.48,717,95,95,Sell,277.58
96,AMZN,7/22/2016,5,295.42,24,96,96,Buy,691.54
97,GOOGL,10/19/2015,1,813.79,4,97,97,Buy,209.69
98,GOOGL,5/15/2020,21,949.12,732,98,98,Buy,510.87
99,GOOGL,8/14/2014,17,498.95,775,99,99,Buy,360.05
100,GOOGL,9/6/2014,2,919.89,986,100,100,Sell,130.36
101,AMZN,7/1/2016,14,701.19,827,101,101,Buy,328.85
102,GOOGL,6/13/2010,2,817.02,764,102,102,Sell,672.72
103,AMZN,4/11/2011,18,954.77,444,103,103,Buy,678.27
104,AAPL,12/27/2013,12,843.12,723,104,104,Buy,402.38
105,AAPL,10/29/2015,12,806.13,867,105,105,Sell,333.73
106,AMZN,12/23/2015,11,570.74,938,106,106,Sell,320.37
107,GOOGL,2/11/2019,4,429.25,289,107,107,Sell,591.94
108,AMZN,1/22/2020,2,269.52,686,108,108,Sell,335.65
109,GOOGL,7/28/2012,7,526.01,314,109,109,Sell,119.48
110,GOOGL,4/14/2016,23,766.0,654,110,110,Sell,452.96
111,AAPL,7/29/2017,9,390.04,676,111,111,Buy,140.63
112,AMZN,9/3/2012,18,834.65,384,112,112,Sell,947.1
113,AAPL,12/12/2010,16,266.01,629,113,113,Sell,744.83
114,AAPL,10/31/2019,15,527.94,943,114,114,Buy,997.45
115,GOOGL,3/2/2018,10,156.77,554,115,115,Sell,40.76
116,GOOGL,8/13/2020,19,264.76,44,116,116,Buy,628.88
117,AMZN,4/2/2018,1,663.12,994,117,117,Sell,275.17
118,AAPL,1/6/2021,1,323.03,222,118,118,Sell,382.57
119,AAPL,5/16/2017,10,503.85,154,119,119,Buy,260.17
120,AMZN,9/19/2021,19,543.21,295,120,120,Sell,696.39
121,GOOGL,1/14/2019,23,62.86,700,121,121,Buy,202.78
122,AMZN,2/11/2020,14,323.39,838,122,122,Sell,848.05
123,AAPL,3/10/2011,16,287.27,871,123,123,Buy,865.94
124,AAPL,6/14/2021,7,923.11,282,124,124,Sell,954.78
125,AAPL,12/10/2019,11,281.01,658,125,125,Sell,499.08
126,AMZN,10/21/2018,5,694.12,136,126,126,Buy,771.17
127,GOOGL,11/6/2013,5,244.17,745,127,127,Sell,629.96
128,GOOGL,5/21/2015,6,242.44,138,128,128,Sell,364.54
129,GOOGL,3/1/2015,8,218.97,207,129,129,Buy,174.28
130,AAPL,7/8/2021,14,515.26,285,130,130,Buy,760.8
131,AMZN,9/18/2012,19,227.63,54,131,131,Sell,756.86
132,GOOGL,5/14/2016,19,788.93,594,132,132,Buy,540.31
133,GOOGL,6/19/2010,13,905.47,84,133,133,Sell,531.24
134,AAPL,2/7/2020,9,364.97,283,134,134,Sell,850.81
135,AAPL,4/16/2014,10,774.36,295,135,135,Sell,39.86
136,AMZN,2/4/2015,8,674.72,480,136,136,Buy,663.63
137,GOOGL,12/9/2011,20,366.88,285,137,137,Buy,189.33
138,AMZN,6/4/2014,13,252.83,843,138,138,Sell,192.91
139,AMZN,12/3/2014,10,953.6,986,139,139,Buy,185.96
140,AMZN,3/29/2013,4,619.05,951,140,140,Buy,183.31
141,AAPL,7/23/2012,9,592.7,176,141,141,Buy,614.18
142,AAPL,1/16/2015,7,451.6,108,142,142,Sell,34.49
143,AAPL,3/18/2015,1,637.29,288,143,143,Buy,378.96
144,AAPL,3/30/2019,15,703.51,2,144,144,Buy,112.14
145,AAPL,12/6/2012,5,965.4,590,145,145,Sell,353.97
146,AAPL,7/8/2017,20,667.2,948,146,146,Sell,325.04
147,GOOGL,7/4/2019,3,849.27,643,147,147,Buy,1.08
148,AMZN,12/20/2013,14,979.56,863,148,148,Sell,936.23
149,GOOGL,5/20/2014,11,479.16,330,149,149,Buy,202.91
150,GOOGL,7/2/2011,8,547.08,565,150,150,Sell,45.78
151,AAPL,11/28/2020,13,509.9,423,151,151,Sell,43.06
152,GOOGL,3/3/2013,1,899.47,974,152,152,Sell,72.12
153,AAPL,1/29/2010,22,600.58,409,153,153,Buy,887.15
154,GOOGL,5/14/2013,12,822.35,363,154,154,Buy,367.57
155,AAPL,6/21/2016,5,209.52,223,155,155,Buy,788.87
156,AAPL,5/26/2015,0,696.24,62,156,156,Buy,828.74
157,AAPL,10/7/2021,4,195.38,991,157,157,Sell,847.19
158,GOOGL,7/22/2014,21,613.01,225,158,158,Sell,667.4
159,GOOGL,6/4/2018,12,459.21,798,159,159,Sell,529.37
160,AMZN,7/16/2015,7,517.78,742,160,160,Sell,45.51
161,AMZN,9/12/2011,5,620.02,288,161,161,Buy,882.46
162,AAPL,7/13/2014,16,280.28,269,162,162,Buy,119.37
163,GOOGL,4/3/2015,7,724.2,596,163,163,Buy,91.52
164,AMZN,10/23/2020,3,468.84,141,164,164,Sell,84.97
165,AAPL,12/10/2017,10,2.21,71,165,165,Buy,413.71
166,AMZN,5/29/2013,7,62.67,504,166,166,Sell,412.95
167,GOOGL,2/8/2015,1,217.91,161,167,167,Buy,392.92
168,AMZN,10/17/2018,19,551.23,483,168,168,Sell,218.16
169,AMZN,12/19/2017,14,609.38,389,169,169,Buy,232.26
170,AMZN,6/3/2016,0,244.12,240,170,170,Sell,605.71
171,GOOGL,11/22/2019,11,420.37,191,171,171,Buy,532.37
172,AAPL,6/20/2018,15,728.09,111,172,172,Sell,307.91
173,GOOGL,9/25/2013,11,272.73,627,173,173,Buy,786.45
174,AMZN,3/9/2015,21,6.98,180,174,174,Sell,11.0
175,GOOGL,6/2/2018,15,486.32,525,175,175,Buy,232.99
176,GOOGL,11/29/2012,1,148.27,479,176,176,Sell,465.54
177,AMZN,7/5/2010,11,585.17,81,177,177,Sell,636.17
178,AAPL,11/16/2019,14,192.44,861,178,178,Buy,272.2
179,AMZN,5/17/2018,12,705.06,524,179,179,Sell,55.67
180,AMZN,8/8/2018,23,56.15,63,180,180,Buy,414.45
181,GOOGL,8/4/2011,21,126.74,47,181,181,Buy,864.13
182,AAPL,12/25/2021,5,938.98,511,182,182,Buy,138.0
183,GOOGL,12/19/2011,18,834.17,412,183,183,Buy,756.06
184,GOOGL,10/4/2014,8,90.07,480,184,184,Buy,401.3
185,AMZN,3/1/2019,11,931.96,444,185,185,Sell,208.33
186,GOOGL,2/3/2010,2,784.86,213,186,186,Buy,207.66
187,GOOGL,5/11/2011,2,409.78,209,187,187,Sell,249.46
188,AAPL,6/23/2018,9,370.1,67,188,188,Buy,141.36
189,AMZN,9/21/2020,0,221.78,340,189,189,Buy,197.71
190,AMZN,12/22/2014,18,42.09,521,190,190,Sell,778.29
191,AMZN,11/19/2012,23,988.07,107,191,191,Buy,55.5
192,AMZN,6/8/2012,16,177.98,108,192,192,Sell,964.1
193,AAPL,4/18/2020,9,217.59,484,193,193,Sell,666.2
194,AAPL,3/11/2017,16,473.76,193,194,194,Buy,424.06
195,GOOGL,4/4/2012,4,849.15,392,195,195,Buy,125.44
196,AMZN,7/21/2016,0,693.8,750,196,196,Sell,73.89
197,AMZN,1/10/2011,19,207.37,393,197,197,Buy,208.74
198,GOOGL,11/24/2019,6,812.56,697,198,198,Sell,733.81
199,GOOGL,9/21/2017,21,969.32,547,199,199,Buy,731.44
200,AMZN,2/16/2013,5,835.12,630,200,200,Buy,747.41
201,AMZN,8/12/2015,16,722.0,711,201,201,Sell,726.67
202,AAPL,5/25/2021,22,205.09,749,202,202,Buy,657.41
203,AMZN,11/15/2016,9,349.76,757,203,203,Sell,993.5
204,AAPL,4/19/2011,1,672.83,313,204,204,Buy,911.68
205,GOOGL,12/22/2015,13,591.12,509,205,205,Buy,680.06
206,AMZN,5/20/2018,4,715.64,769,206,206,Buy,792.32
207,AMZN,7/23/2013,16,138.55,428,207,207,Buy,246.91
208,AAPL,5/31/2013,9,934.9,388,208,208,Sell,138.81
209,GOOGL,11/14/2010,3,128.63,744,209,209,Buy,461.46
210,AAPL,1/29/2010,17,504.3,21,210,210,Sell,240.03
211,GOOGL,2/22/2018,22,210.33,19,211,211,Sell,307.11
212,AMZN,11/15/2011,0,945.25,295,212,212,Sell,614.63
213,AAPL,1/26/2020,9,820.02,491,213,213,Sell,422.64
214,AAPL,4/16/2014,14,316.04,210,214,214,Sell,836.93
215,AAPL,8/24/2011,19,717.81,464,215,215,Sell,533.41
216,AAPL,7/5/2016,14,402.2,129,216,216,Buy,80.54
217,AAPL,7/25/2018,16,517.65,449,217,217,Buy,121.46
218,AMZN,1/4/2019,8,562.73,580,218,218,Sell,841.91
219,GOOGL,11/24/2019,0,120.63,577,219,219,Buy,546.34
220,GOOGL,11/18/2011,7,377.92,470,220,220,Sell,592.26
221,GOOGL,7/27/2020,7,834.09,242,221,221,Buy,697.24
222,GOOGL,10/11/2012,14,113.16,441,222,222,Buy,152.02
223,AAPL,12/3/2010,2,888.7,214,223,223,Buy,405.02
224,GOOGL,4/28/2017,14,939.14,203,224,224,Buy,93.7
225,AMZN,3/11/2013,12,25.16,632,225,225,Sell,959.99
226,AMZN,3/9/2013,23,898.91,913,226,226,Buy,243.46
227,AAPL,4/8/2013,22,443.4,982,227,227,Sell,668.82
228,AMZN,8/21/2018,11,80.72,917,228,228,Buy,761.77
229,AMZN,7/10/2011,13,253.37,856,229,229,Buy,83.44
230,AMZN,6/25/2010,20,671.51,505,230,230,Buy,803.3
231,AMZN,1/15/2016,23,909.68,287,231,231,Sell,806.89
232,AMZN,4/15/2015,6,754.5,925,232,232,Buy,159.84
233,AAPL,7/31/2018,10,707.48,497,233,233,Buy,365.91
234,AMZN,1/1/2014,19,97.99,367,234,234,Buy,908.94
235,GOOGL,12/11/2015,3,391.8,747,235,235,Sell,309.39
236,GOOGL,12/5/2012,22,930.82,671,236,236,Sell,999.88
237,AAPL,11/3/2021,4,213.15,571,237,237,Buy,994.31
238,AMZN,2/23/2020,15,917.72,643,238,238,Sell,679.08
239,AAPL,3/6/2020,11,671.63,621,239,239,Buy,357.16
240,AMZN,2/13/2013,20,615.2,845,240,240,Sell,328.37
241,AMZN,10/18/2020,17,273.01,464,241,241,Sell,637.22
242,AMZN,10/9/2016,16,382.74,921,242,242,Buy,193.65
243,AMZN,4/26/2010,15,15.37,937,243,243,Sell,132.75
244,GOOGL,5/7/2014,3,921.67,535,244,244,Buy,236.78
245,AMZN,1/15/2019,11,325.02,963,245,245,Sell,320.32
246,AMZN,9/22/2012,12,806.06,743,246,246,Sell,54.0
247,GOOGL,5/8/2021,11,325.51,563,247,247,Buy,930.01
248,AMZN,11/29/2015,9,527.05,947,248,248,Buy,724.39
249,AMZN,1/10/2010,9,139.27,340,249,249,Buy,173.25
250,AAPL,12/6/2018,23,446.34,546,250,250,Buy,418.97
251,GOOGL,11/19/2012,22,165.54,331,251,251,Sell,376.91
252,AAPL,9/23/2019,19,283.12,772,252,252,Sell,954.23
253,GOOGL,3/24/2010,18,236.84,683,253,253,Buy,452.17
254,GOOGL,4/19/2020,5,105.79,503,254,254,Sell,755.82
255,AAPL,11/14/2011,7,351.84,912,255,255,Sell,702.43
256,AMZN,1/27/2012,11,999.3,531,256,256,Buy,20.87
257,GOOGL,7/2/2015,1,420.81,529,257,257,Buy,539.24
258,AMZN,10/10/2020,19,728.33,777,258,258,Buy,180.35
259,AAPL,7/24/2013,9,795.06,85,259,259,Sell,195.07
260,GOOGL,12/4/2016,0,239.02,168,260,260,Sell,891.05
261,AMZN,3/26/2018,5,154.17,298,261,261,Buy,411.0
262,GOOGL,5/15/2011,17,530.64,990,262,262,Sell,150.82
263,AAPL,1/1/2019,11,106.41,888,263,263,Buy,321.95
264,AAPL,9/23/2014,13,968.17,948,264,264,Sell,674.66
265,AAPL,6/5/2021,8,310.46,37,265,265,Buy,37.15
266,AAPL,11/21/2012,18,207.55,264,266,266,Buy,929.7
267,AMZN,9/13/2016,1,931.07,976,267,267,Buy,747.35
268,AMZN,11/6/2020,5,857.48,908,268,268,Sell,796.46
269,AAPL,2/22/2013,1,735.41,789,269,269,Sell,488.55
270,GOOGL,10/15/2021,3,748.52,913,270,270,Buy,965.91
271,AMZN,2/11/2021,4,185.91,44,271,271,Sell,740.44
272,GOOGL,3/4/2020,8,43.61,862,272,272,Buy,706.08
273,GOOGL,3/16/2016,19,568.55,171,273,273,Sell,728.93
274,AAPL,6/9/2010,16,435.19,498,274,274,Sell,77.77
275,GOOGL,2/27/2017,11,715.67,21,275,275,Sell,932.32
276,AMZN,9/17/2011,13,820.47,51,276,276,Sell,387.53
277,AAPL,4/2/2011,5,699.38,162,277,277,Sell,766.88
278,AAPL,11/2/2014,14,688.71,858,278,278,Buy,837.31
279,GOOGL,2/21/2017,11,423.81,757,279,279,Sell,558.55
280,AMZN,8/2/2021,11,232.74,62,280,280,Sell,825.21
281,AAPL,7/8/2015,17,314.32,43,281,281,Sell,825.79
282,GOOGL,8/4/2014,17,172.42,243,282,282,Buy,415.43
283,GOOGL,7/11/2019,15,543.43,684,283,283,Buy,563.0
284,AAPL,9/27/2012,4,360.64,356,284,284,Sell,355.52
285,AAPL,2/7/2011,13,871.95,982,285,285,Sell,937.07
286,GOOGL,3/28/2019,4,260.52,31,286,286,Buy,535.42
287,AAPL,1/29/2016,13,178.71,886,287,287,Buy,170.57
288,AAPL,10/2/2018,14,414.96,565,288,288,Sell,862.06
289,AMZN,5/9/2013,17,224.41,954,289,289,Sell,50.51
290,GOOGL,11/5/2021,15,663.37,354,290,290,Sell,20.29
291,GOOGL,12/18/2020,1,596.12,280,291,291,Buy,881.54
292,AMZN,11/1/2014,16,370.4,179,292,292,Buy,354.68
293,AAPL,9/15/2021,2,646.43,85,293,293,Buy,922.01
294,AAPL,9/1/2019,22,805.89,346,294,294,Buy,32.91
295,AAPL,10/28/2021,17,364.96,740,295,295,Buy,907.35
296,GOOGL,9/6/2010,13,776.44,47,296,296,Sell,256.15
297,AMZN,2/25/2014,4,914.89,540,297,297,Sell,596.48
298,GOOGL,9/3/2014,12,543.38,557,298,298,Buy,402.29
299,GOOGL,8/3/2018,15,344.17,496,299,299,Sell,932.81
300,AMZN,3/13/2012,11,53.05,161,300,300,Sell,728.53
301,AAPL,5/6/2016,21,842.35,128,301,301,Sell,673.21
302,AAPL,12/5/2015,1,245.38,471,302,302,Buy,645.42
303,GOOGL,1/28/2012,1,553.32,766,303,303,Buy,691.38
304,AMZN,8/9/2013,2,108.33,225,304,304,Sell,818.09
305,AMZN,10/16/2013,1,364.53,314,305,305,Buy,232.5
306,AMZN,9/6/2019,12,590.66,365,306,306,Sell,419.8
307,AAPL,10/19/2021,0,228.09,225,307,307,Buy,313.22
308,AMZN,12/13/2011,0,859.83,632,308,308,Sell,114.26
309,GOOGL,9/3/2016,7,72.11,472,309,309,Sell,427.84
310,GOOGL,3/4/2014,11,375.36,480,310,310,Sell,241.75
311,AMZN,10/9/2019,14,191.53,270,311,311,Sell,566.29
312,AAPL,2/15/2014,14,128.72,594,312,312,Sell,77.04
313,AAPL,3/10/2017,8,559.86,165,313,313,Buy,353.04
314,AAPL,3/1/2016,14,607.23,234,314,314,Sell,347.42
315,GOOGL,9/12/2014,13,998.36,859,315,315,Sell,313.88
316,AMZN,6/22/2010,9,428.94,231,316,316,Buy,315.65
317,AMZN,3/29/2013,3,286.79,103,317,317,Sell,420.01
318,AMZN,10/31/2017,16,846.71,943,318,318,Buy,346.92
319,GOOGL,9/29/2013,23,982.76,69,319,319,Buy,520.49
320,AAPL,8/4/2013,11,162.49,240,320,320,Sell,204.78
321,AAPL,4/24/2012,3,916.27,27,321,321,Buy,354.38
322,GOOGL,4/10/2011,7,869.27,797,322,322,Buy,574.81
323,AAPL,12/3/2019,8,195.05,810,323,323,Buy,365.34
324,AMZN,5/15/2016,8,461.16,232,324,324,Buy,522.61
325,AAPL,8/22/2013,3,694.97,235,325,325,Sell,328.53
326,GOOGL,1/22/2011,11,243.13,272,326,326,Sell,87.41
327,AAPL,10/9/2010,10,794.99,426,327,327,Buy,710.27
328,AMZN,4/9/2019,1,952.53,812,328,328,Buy,975.69
329,AAPL,5/4/2016,4,489.95,195,329,329,Buy,453.46
330,AMZN,8/30/2014,3,164.6,175,330,330,Sell,284.81
331,GOOGL,11/20/2020,10,325.98,66,331,331,Buy,349.5
332,GOOGL,7/29/2016,15,665.86,460,332,332,Sell,306.0
333,AAPL,3/25/2010,21,872.5,285,333,333,Buy,4.7
334,GOOGL,8/29/2012,10,450.63,401,334,334,Sell,215.18
335,AMZN,11/7/2013,17,600.32,42,335,335,Buy,339.36
336,AMZN,12/21/2020,21,94.13,782,336,336,Buy,289.78
337,GOOGL,6/25/2015,21,615.68,922,337,337,Buy,109.81
338,AAPL,5/16/2014,20,186.52,739,338,338,Buy,788.92
339,AMZN,6/10/2012,13,106.62,631,339,339,Sell,894.31
340,GOOGL,7/5/2012,2,983.57,223,340,340,Buy,296.65
341,AAPL,4/22/2019,20,142.14,287,341,341,Sell,948.38
342,AMZN,6/7/2019,13,820.45,311,342,342,Buy,130.42
343,AMZN,11/3/2018,12,140.72,361,343,343,Buy,977.03
344,GOOGL,12/29/2018,23,93.05,216,344,344,Buy,453.71
345,AMZN,3/10/2018,19,727.73,848,345,345,Sell,459.15
346,AMZN,11/24/2010,10,374.55,41,346,346,Sell,421.18
347,GOOGL,11/16/2014,21,940.43,753,347,347,Sell,315.02
348,AMZN,7/31/2019,15,283.62,679,348,348,Sell,101.41
349,GOOGL,5/12/2011,20,589.74,397,349,349,Sell,343.39
350,AMZN,9/6/2017,18,100.3,367,350,350,Sell,915.79
351,AMZN,5/27/2013,21,251.35,687,351,351,Buy,891.72
352,AMZN,9/19/2020,23,241.48,511,352,352,Buy,824.63
353,AAPL,12/6/2011,2,153.54,579,353,353,Buy,454.28
354,AAPL,1/25/2014,5,61.63,153,354,354,Sell,272.62
355,AMZN,8/4/2011,23,651.2,952,355,355,Buy,88.73
356,AAPL,10/15/2017,7,495.15,604,356,356,Buy,437.1
357,AMZN,7/25/2012,0,897.78,341,357,357,Sell,673.82
358,AAPL,6/14/2017,10,163.84,61,358,358,Sell,904.76
359,GOOGL,5/19/2014,20,48.55,399,359,359,Sell,370.22
360,GOOGL,7/21/2020,6,468.51,854,360,360,Sell,921.01
361,AAPL,10/21/2020,10,649.96,774,361,361,Sell,629.06
362,GOOGL,9/1/2019,1,315.96,988,362,362,Sell,574.12
363,AMZN,3/23/2018,3,194.6,69,363,363,Buy,767.98
364,GOOGL,11/2/2013,13,590.39,131,364,364,Sell,236.61
365,AAPL,8/22/2018,17,947.52,606,365,365,Sell,796.06
366,GOOGL,9/22/2021,4,471.85,772,366,366,Sell,373.29
367,AAPL,7/1/2015,21,652.59,913,367,367,Buy,769.04
368,AAPL,11/20/2017,21,373.09,988,368,368,Sell,28.59
369,AAPL,7/14/2016,18,824.8,578,369,369,Sell,280.44
370,AAPL,2/26/2013,3,363.11,742,370,370,Sell,840.93
371,GOOGL,11/4/2021,19,804.23,26,371,371,Sell,433.52
372,AMZN,12/21/2018,19,818.89,212,372,372,Sell,180.83
373,GOOGL,6/24/2016,22,850.78,389,373,373,Buy,429.54
374,GOOGL,3/30/2014,14,555.28,683,374,374,Buy,526.8
375,AMZN,6/1/2020,21,996.99,931,375,375,Buy,337.37
376,AMZN,9/19/2017,13,135.72,127,376,376,Sell,526.81
377,AAPL,5/7/2015,20,975.4,904,377,377,Sell,539.37
378,AMZN,4/12/2010,22,727.13,107,378,378,Buy,492.61
379,AMZN,5/4/2012,8,584.26,376,379,379,Buy,949.32
380,AAPL,8/12/2016,9,146.63,216,380,380,Sell,444.56
381,AAPL,6/25/2017,0,169.82,353,381,381,Sell,700.31
382,AAPL,1/11/2020,6,723.51,482,382,382,Sell,116.93
383,AAPL,4/1/2015,16,224.03,794,383,383,Sell,627.57
384,GOOGL,3/5/2021,23,783.72,735,384,384,Buy,168.66
385,AAPL,5/19/2021,4,937.04,527,385,385,Buy,319.98
386,AMZN,5/30/2015,4,880.34,8,386,386,Buy,697.9
387,AAPL,5/10/2012,7,764.71,643,387,387,Sell,601.36
388,AAPL,8/31/2017,8,945.16,318,388,388,Buy,946.63
389,AMZN,5/20/2014,10,603.88,668,389,389,Buy,984.4
390,AAPL,12/21/2018,19,207.91,982,390,390,Sell,901.18
391,GOOGL,1/3/2020,2,633.17,166,391,391,Sell,81.84
392,AMZN,5/22/2013,19,453.89,224,392,392,Sell,939.25
393,AAPL,5/6/2010,7,53.07,457,393,393,Sell,929.73
394,AMZN,8/15/2014,8,310.57,177,394,394,Sell,649.21
395,GOOGL,12/13/2014,9,206.4,73,395,395,Buy,386.15
396,GOOGL,11/30/2010,1,601.58,329,396,396,Buy,917.39
397,GOOGL,4/4/2013,15,826.03,692,397,397,Sell,557.26
398,AMZN,11/23/2019,8,337.27,264,398,398,Buy,0.59
399,AAPL,3/12/2018,6,788.5,759,399,399,Sell,374.45
400,AAPL,6/18/2015,10,754.88,997,400,400,Sell,801.38
401,AAPL,12/10/2017,10,126.15,825,401,401,Sell,772.08
402,AMZN,5/1/2019,5,53.61,309,402,402,Sell,539.56
403,GOOGL,8/30/2018,22,679.12,817,403,403,Sell,96.32
404,AMZN,4/19/2010,11,99.34,877,404,404,Buy,291.56
405,AAPL,2/26/2015,19,92.35,425,405,405,Buy,68.08
406,AMZN,5/10/2013,7,691.98,582,406,406,Sell,630.89
407,AMZN,4/30/2010,10,981.34,997,407,407,Buy,471.28
408,GOOGL,11/4/2014,10,385.32,69,408,408,Buy,96.17
409,AMZN,7/30/2012,3,207.45,722,409,409,Buy,818.95
410,GOOGL,3/25/2018,14,153.84,283,410,410,Buy,616.68
411,AMZN,8/24/2014,5,696.43,477,411,411,Buy,449.23
412,AMZN,6/26/2016,4,151.27,106,412,412,Buy,494.82
413,AMZN,3/12/2015,9,587.7,198,413,413,Buy,450.42
414,GOOGL,8/13/2018,20,798.83,650,414,414,Buy,230.62
415,AAPL,3/12/2020,18,820.68,426,415,415,Buy,617.19
416,GOOGL,1/6/2016,20,998.73,788,416,416,Buy,369.22
417,AAPL,8/10/2018,22,527.39,169,417,417,Sell,539.2
418,AMZN,11/10/2020,22,598.64,798,418,418,Buy,573.37
419,AMZN,1/29/2016,12,630.27,651,419,419,Sell,221.56
420,AAPL,11/8/2014,20,563.93,169,420,420,Buy,126.67
421,AMZN,10/8/2018,1,274.48,258,421,421,Sell,12.92
422,AMZN,2/8/2015,10,684.12,654,422,422,Buy,164.58
423,AAPL,3/13/2013,15,724.85,53,423,423,Sell,113.04
424,AAPL,9/7/2020,2,681.96,311,424,424,Sell,241.3
425,GOOGL,10/28/2021,22,112.89,126,425,425,Sell,772.11
426,GOOGL,12/3/2021,1,63.97,622,426,426,Sell,384.02
427,AMZN,5/22/2020,1,995.53,885,427,427,Sell,22.96
428,GOOGL,5/23/2011,13,564.98,990,428,428,Sell,65.02
429,AAPL,7/13/2011,11,466.13,140,429,429,Sell,23.63
430,GOOGL,9/4/2013,5,96.2,365,430,430,Sell,547.4
431,AAPL,7/19/2010,9,827.94,458,431,431,Buy,482.01
432,AAPL,4/9/2017,9,328.62,392,432,432,Buy,428.26
433,AMZN,12/30/2014,16,512.78,89,433,433,Buy,954.85
434,GOOGL,1/23/2010,17,615.19,864,434,434,Sell,913.79
435,AMZN,2/15/2020,16,469.08,999,435,435,Sell,344.83
436,AMZN,8/11/2015,13,858.44,95,436,436,Sell,713.86
437,AMZN,5/31/2012,13,699.8,883,437,437,Sell,676.22
438,AAPL,1/10/2019,1,167.1,399,438,438,Buy,944.34
439,AMZN,3/9/2011,19,124.78,478,439,439,Buy,622.78
440,AAPL,7/25/2021,3,161.54,424,440,440,Sell,238.8
441,GOOGL,3/29/2021,20,591.73,918,441,441,Buy,260.62
442,AMZN,4/26/2018,8,48.87,787,442,442,Buy,751.79
443,AMZN,12/2/2019,15,520.34,336,443,443,Buy,221.56
444,AMZN,3/30/2013,12,846.89,143,444,444,Sell,235.13
445,AMZN,10/6/2014,1,897.02,857,445,445,Sell,218.39
446,AAPL,4/1/2012,14,643.86,123,446,446,Sell,574.05
447,AMZN,8/25/2020,17,985.05,579,447,447,Sell,765.28
448,GOOGL,4/30/2018,22,933.95,513,448,448,Buy,390.37
449,AAPL,9/5/2021,13,854.15,631,449,449,Buy,902.83
450,AAPL,4/27/2012,0,33.58,143,450,450,Sell,492.06
451,GOOGL,9/12/2013,2,301.67,232,451,451,Buy,808.63
452,GOOGL,7/22/2018,3,207.12,496,452,452,Buy,149.34
453,AAPL,1/5/2014,23,497.78,886,453,453,Sell,407.3
454,GOOGL,7/4/2016,6,848.11,926,454,454,Buy,110.72
455,AMZN,12/23/2013,18,47.3,920,455,455,Sell,419.18
456,GOOGL,11/30/2012,21,788.65,631,456,456,Buy,241.78
457,AMZN,10/21/2014,21,154.8,160,457,457,Buy,7.79
458,AAPL,3/9/2019,21,3.58,509,458,458,Buy,306.04
459,GOOGL,4/2/2010,23,639.65,483,459,459,Buy,105.02
460,AAPL,9/2/2016,9,799.47,898,460,460,Sell,532.7
461,AAPL,2/18/2019,17,960.02,719,461,461,Sell,638.43
462,GOOGL,4/5/2019,12,61.15,634,462,462,Sell,560.03
463,AMZN,7/3/2014,22,773.68,104,463,463,Sell,406.15
464,AAPL,10/14/2016,10,917.51,550,464,464,Buy,911.78
465,AAPL,2/17/2010,10,386.35,366,465,465,Sell,194.38
466,AAPL,8/17/2019,8,811.25,772,466,466,Sell,62.74
467,AAPL,4/6/2015,10,261.26,578,467,467,Buy,592.73
468,AMZN,2/2/2012,12,244.84,789,468,468,Buy,465.15
469,GOOGL,7/23/2012,2,471.89,822,469,469,Sell,962.48
470,AMZN,12/1/2010,1,575.68,964,470,470,Buy,137.05
471,GOOGL,10/11/2016,14,733.65,814,471,471,Buy,819.84
472,GOOGL,6/1/2019,1,277.9,722,472,472,Sell,443.44
473,GOOGL,1/24/2011,21,543.65,90,473,473,Buy,671.56
474,AAPL,6/24/2012,23,700.72,901,474,474,Sell,677.19
475,GOOGL,1/14/2020,20,507.07,500,475,475,Buy,281.78
476,GOOGL,7/18/2017,17,661.04,492,476,476,Buy,292.69
477,GOOGL,7/23/2010,19,309.73,627,477,477,Buy,585.66
478,AMZN,11/21/2019,22,584.13,236,478,478,Buy,204.54
479,AMZN,11/18/2010,0,16.11,328,479,479,Buy,851.99
480,GOOGL,6/11/2013,19,47.73,986,480,480,Sell,555.37
481,GOOGL,8/10/2012,8,992.93,793,481,481,Sell,302.32
482,GOOGL,5/16/2015,12,622.82,485,482,482,Buy,732.37
483,GOOGL,12/10/2014,22,860.43,461,483,483,Sell,167.95
484,GOOGL,8/30/2011,8,246.79,949,484,484,Sell,49.06
485,AAPL,8/5/2010,22,957.61,610,485,485,Sell,271.35
486,AAPL,1/30/2011,0,917.39,363,486,486,Sell,347.01
487,AAPL,2/2/2012,21,484.33,756,487,487,Sell,282.71
488,AMZN,1/7/2016,17,431.73,755,488,488,Buy,880.34
489,AAPL,5/22/2018,13,617.07,103,489,489,Buy,15.74
490,AMZN,6/22/2012,13,92.85,737,490,490,Buy,435.87
491,AMZN,6/16/2014,18,342.75,16,491,491,Sell,386.27
492,AAPL,12/22/2017,5,532.81,157,492,492,Buy,459.05
493,AAPL,12/20/2011,4,921.75,623,493,493,Buy,754.39
494,AAPL,3/10/2014,5,921.91,879,494,494,Sell,915.59
495,AMZN,7/31/2010,13,376.65,9,495,495,Sell,784.72
496,AAPL,1/8/2015,3,343.77,751,496,496,Sell,350.23
497,AMZN,7/9/2010,4,822.96,470,497,497,Buy,467.55
498,GOOGL,8/1/2021,20,269.1,990,498,498,Sell,340.19
499,GOOGL,5/17/2012,3,687.72,198,499,499,Sell,430.16
500,AMZN,12/10/2011,20,363.14,355,500,500,Sell,553.33
501,AAPL,2/18/2020,19,219.59,202,501,501,Sell,500.74
502,AMZN,11/22/2010,9,741.69,399,502,502,Sell,10.91
503,AMZN,1/12/2018,3,87.54,365,503,503,Buy,860.15
504,GOOGL,11/20/2012,2,37.35,86,504,504,Buy,661.0
505,AMZN,12/14/2013,2,664.02,349,505,505,Buy,879.02
506,AAPL,10/19/2020,2,268.05,589,506,506,Sell,781.36
507,GOOGL,11/25/2017,10,182.65,420,507,507,Buy,84.82
508,AAPL,6/10/2017,0,161.99,343,508,508,Buy,370.21
509,AAPL,11/23/2021,3,633.72,804,509,509,Buy,60.1
510,AMZN,7/31/2013,18,773.33,827,510,510,Sell,355.83
511,AMZN,2/14/2020,9,906.44,185,511,511,Sell,185.04
512,AMZN,6/7/2014,23,847.63,381,512,512,Buy,373.89
513,AAPL,9/2/2014,14,561.51,365,513,513,Buy,553.42
514,GOOGL,8/18/2014,5,782.76,670,514,514,Sell,951.17
515,AAPL,7/24/2019,19,274.54,438,515,515,Buy,273.86
516,AAPL,7/11/2019,21,20.45,940,516,516,Sell,628.49
517,GOOGL,10/3/2012,23,253.94,530,517,517,Sell,820.62
518,GOOGL,3/29/2012,16,776.02,514,518,518,Buy,455.51
519,AMZN,10/22/2020,13,398.79,426,519,519,Buy,980.23
520,AMZN,5/24/2015,11,517.71,886,520,520,Sell,322.41
521,AMZN,5/20/2010,11,245.15,891,521,521,Sell,105.44
522,AAPL,1/11/2012,14,93.11,851,522,522,Sell,924.99
523,GOOGL,1/5/2014,14,573.06,821,523,523,Buy,837.16
524,GOOGL,10/26/2017,15,353.73,485,524,524,Buy,214.71
525,AMZN,5/23/2021,0,571.15,498,525,525,Buy,409.11
526,AAPL,1/6/2015,13,981.21,493,526,526,Sell,587.39
527,GOOGL,4/1/2021,2,332.45,743,527,527,Buy,145.38
528,GOOGL,9/7/2019,21,529.2,50,528,528,Sell,575.04
529,AAPL,9/17/2018,23,789.3,291,529,529,Sell,799.26
530,AMZN,4/22/2018,5,825.36,523,530,530,Buy,627.35
531,AMZN,2/29/2020,17,116.19,58,531,531,Sell,432.9
532,GOOGL,7/2/2018,10,433.74,218,532,532,Sell,164.2
533,AMZN,4/7/2016,18,337.02,489,533,533,Buy,945.6
534,GOOGL,5/7/2014,8,909.94,804,534,534,Sell,472.79
535,GOOGL,5/27/2012,4,45.55,872,535,535,Buy,144.79
536,AMZN,12/22/2020,14,396.37,632,536,536,Sell,708.01
537,GOOGL,2/28/2019,11,961.56,55,537,537,Buy,538.21
538,AMZN,3/12/2010,11,178.7,178,538,538,Sell,535.41
539,AAPL,4/7/2013,15,676.45,925,539,539,Buy,377.74
540,AMZN,2/23/2021,7,771.76,565,540,540,Sell,747.27
541,GOOGL,4/9/2018,6,85.71,635,541,541,Sell,822.21
542,AAPL,9/30/2020,17,708.29,829,542,542,Buy,821.76
543,AAPL,10/13/2019,16,796.38,243,543,543,Sell,772.02
544,AAPL,10/3/2018,23,748.04,812,544,544,Sell,630.76
545,AMZN,4/18/2016,21,436.7,494,545,545,Buy,260.52
546,AMZN,9/21/2021,17,465.26,849,546,546,Buy,548.96
547,AMZN,7/25/2019,22,140.05,98,547,547,Sell,42.25
548,AMZN,8/10/2019,4,917.48,714,548,548,Sell,208.43
549,AAPL,7/2/2012,16,509.99,985,549,549,Buy,854.91
550,GOOGL,1/20/2012,5,739.42,784,550,550,Sell,338.4
551,AMZN,5/30/2013,5,969.02,396,551,551,Buy,434.33
552,AAPL,12/19/2021,23,841.7,129,552,552,Sell,501.07
553,GOOGL,3/11/2013,0,679.41,651,553,553,Sell,205.25
554,AAPL,10/16/2010,0,678.92,21,554,554,Buy,874.61
555,GOOGL,6/4/2016,7,451.66,970,555,555,Sell,911.85
556,GOOGL,7/8/2011,9,975.37,96,556,556,Buy,327.18
557,AAPL,10/16/2017,12,433.11,321,557,557,Buy,701.62
558,GOOGL,4/22/2013,1,309.45,443,558,558,Buy,490.48
559,AMZN,9/6/2015,1,348.11,504,559,559,Buy,901.68
560,AMZN,10/13/2019,7,445.43,986,560,560,Sell,838.22
561,AAPL,9/2/2012,1,749.1,786,561,561,Buy,311.05
562,GOOGL,5/4/2017,10,104.67,505,562,562,Sell,480.16
563,AMZN,12/16/2019,8,414.11,630,563,563,Buy,900.8
564,AAPL,3/26/2015,20,647.8,922,564,564,Buy,794.06
565,GOOGL,1/28/2020,20,900.66,464,565,565,Sell,255.38
566,AAPL,5/3/2010,11,223.4,963,566,566,Sell,81.58
567,AMZN,11/12/2011,12,317.44,63,567,567,Sell,472.37
568,GOOGL,1/2/2020,17,657.91,261,568,568,Buy,847.17
569,AMZN,4/16/2020,4,944.7,543,569,569,Buy,590.6
570,AMZN,5/15/2014,19,211.38,490,570,570,Buy,39.61
571,AAPL,10/3/2015,21,345.34,141,571,571,Sell,357.37
572,AMZN,3/6/2020,8,492.92,500,572,572,Buy,403.61
573,GOOGL,7/31/2014,0,491.54,234,573,573,Buy,94.6
574,AAPL,8/24/2018,16,837.94,954,574,574,Sell,442.13
575,GOOGL,6/25/2010,1,171.96,796,575,575,Sell,860.1
576,AMZN,4/29/2020,3,488.56,151,576,576,Buy,511.07
577,AAPL,10/14/2021,5,100.53,491,577,577,Sell,508.18
578,GOOGL,4/2/2010,14,224.33,439,578,578,Sell,478.75
579,GOOGL,4/17/2012,17,143.99,492,579,579,Sell,479.72
580,AAPL,9/14/2019,6,439.62,708,580,580,Sell,100.77
581,AAPL,2/24/2012,19,759.14,174,581,581,Buy,931.91
582,AMZN,1/19/2017,20,592.47,26,582,582,Buy,89.58
583,AAPL,7/2/2016,18,526.22,665,583,583,Sell,200.7
584,AAPL,2/5/2021,1,203.06,955,584,584,Sell,703.5
585,AAPL,4/1/2020,21,411.76,239,585,585,Sell,229.17
586,GOOGL,11/6/2015,8,83.01,1,586,586,Buy,319.75
587,AMZN,8/20/2017,10,960.79,988,587,587,Buy,399.67
588,AAPL,12/12/2020,0,660.77,287,588,588,Sell,293.72
589,GOOGL,5/6/2015,5,877.9,592,589,589,Buy,489.52
590,AAPL,10/17/2017,8,951.19,847,590,590,Sell,140.85
591,GOOGL,8/21/2014,5,809.17,2,591,591,Buy,759.1
592,AAPL,2/2/2012,16,8.9,703,592,592,Buy,438.01
593,GOOGL,7/20/2015,3,380.37,736,593,593,Sell,178.11
594,AMZN,12/10/2010,17,1.86,639,594,594,Sell,562.7
595,GOOGL,6/15/2010,0,320.52,891,595,595,Buy,957.87
596,GOOGL,7/3/2019,15,666.2,679,596,596,Sell,257.51
597,AMZN,5/27/2011,14,265.58,303,597,597,Sell,378.37
598,AMZN,7/20/2016,4,441.71,640,598,598,Buy,119.77
599,GOOGL,9/28/2014,22,217.85,651,599,599,Buy,528.14
600,AAPL,10/26/2011,1,625.06,349,600,600,Sell,864.95
601,GOOGL,3/31/2010,10,620.73,527,601,601,Sell,805.83
602,GOOGL,4/12/2020,20,617.53,708,602,602,Sell,443.55
603,AMZN,2/23/2011,12,858.31,164,603,603,Buy,617.41
604,GOOGL,6/30/2010,16,937.52,28,604,604,Buy,543.69
605,AMZN,11/6/2011,6,214.54,196,605,605,Buy,66.18
606,AAPL,3/21/2012,4,555.93,790,606,606,Buy,900.71
607,GOOGL,11/11/2021,13,92.65,14,607,607,Buy,772.0
608,AAPL,8/16/2012,2,18.79,700,608,608,Buy,281.09
609,AAPL,6/2/2015,4,821.53,310,609,609,Sell,604.97
610,AMZN,12/7/2014,18,469.49,300,610,610,Buy,296.72
611,AMZN,12/6/2014,16,26.98,510,611,611,Sell,265.67
612,GOOGL,4/21/2016,5,982.94,260,612,612,Buy,137.2
613,GOOGL,7/8/2021,16,850.86,552,613,613,Buy,577.45
614,AAPL,4/12/2016,15,273.18,239,614,614,Buy,310.21
615,AAPL,6/6/2018,6,289.06,725,615,615,Buy,158.96
616,AAPL,4/19/2021,16,668.88,968,616,616,Sell,570.24
617,GOOGL,4/1/2010,12,835.79,591,617,617,Buy,516.53
618,AAPL,10/2/2016,22,656.21,755,618,618,Buy,66.21
619,AAPL,1/24/2019,9,767.4,481,619,619,Sell,485.52
620,AAPL,4/2/2010,5,4.34,894,620,620,Buy,292.53
621,GOOGL,12/27/2013,2,241.2,606,621,621,Buy,179.26
622,AMZN,2/9/2015,1,719.61,838,622,622,Buy,586.9
623,AAPL,12/28/2020,18,367.63,262,623,623,Sell,286.82
624,AMZN,2/17/2018,14,680.58,391,624,624,Buy,52.14
625,AAPL,9/16/2013,20,623.87,89,625,625,Buy,8.46
626,GOOGL,4/3/2012,13,400.54,548,626,626,Sell,250.49
627,GOOGL,3/15/2019,20,822.48,1,627,627,Buy,363.26
628,AAPL,7/8/2012,12,963.93,743,628,628,Buy,658.17
629,GOOGL,10/11/2018,21,204.06,242,629,629,Buy,383.66
630,AMZN,8/6/2015,2,402.62,266,630,630,Buy,555.03
631,GOOGL,4/21/2019,11,529.73,92,631,631,Sell,325.49
632,AMZN,5/22/2016,3,348.56,560,632,632,Sell,708.64
633,AAPL,10/26/2018,4,432.22,426,633,633,Buy,844.94
634,GOOGL,4/15/2017,10,737.72,778,634,634,Buy,842.5
635,AAPL,3/29/2013,22,950.71,689,635,635,Buy,297.85
636,GOOGL,12/15/2019,0,334.9,113,636,636,Sell,717.21
637,GOOGL,5/2/2011,7,71.43,718,637,637,Buy,890.07
638,GOOGL,7/13/2010,12,628.65,723,638,638,Buy,451.77
639,AMZN,7/1/2014,23,459.57,698,639,639,Buy,252.07
640,AMZN,1/1/2017,6,722.44,276,640,640,Sell,841.7
641,AAPL,9/21/2021,21,692.74,832,641,641,Sell,671.3
642,AMZN,7/6/2020,20,573.55,452,642,642,Sell,36.84
643,GOOGL,8/18/2017,18,191.42,732,643,643,Sell,737.85
644,AAPL,12/30/2017,4,872.49,256,644,644,Sell,36.92
645,AMZN,6/10/2012,13,645.43,72,645,645,Sell,672.16
646,AAPL,8/3/2020,3,493.19,647,646,646,Buy,694.14
647,AAPL,7/23/2019,8,635.88,418,647,647,Buy,377.68
648,GOOGL,2/14/2015,15,195.62,552,648,648,Sell,639.92
649,AAPL,5/25/2014,18,780.55,436,649,649,Sell,310.35
650,AMZN,6/4/2020,2,44.61,546,650,650,Buy,136.42
651,AMZN,1/23/2012,8,555.35,810,651,651,Buy,245.63
652,GOOGL,12/25/2014,12,669.42,546,652,652,Sell,758.3
653,AMZN,9/19/2015,7,289.93,401,653,653,Buy,888.37
654,AAPL,11/8/2012,23,302.48,727,654,654,Buy,86.79
655,AAPL,6/3/2019,1,811.92,373,655,655,Sell,682.14
656,AMZN,10/15/2010,22,651.28,313,656,656,Buy,619.59
657,AMZN,12/18/2015,16,656.32,62,657,657,Sell,872.32
658,AAPL,1/27/2016,4,520.19,499,658,658,Sell,615.9
659,AMZN,2/14/2013,20,2.15,264,659,659,Sell,911.31
660,GOOGL,8/22/2020,4,105.65,992,660,660,Sell,384.73
661,AAPL,5/12/2013,22,36.02,748,661,661,Buy,769.53
662,AAPL,3/26/2012,10,998.17,596,662,662,Buy,261.47
663,AMZN,10/10/2014,1,770.18,745,663,663,Sell,371.08
664,GOOGL,11/13/2015,5,930.23,172,664,664,Sell,458.23
665,GOOGL,6/2/2015,1,674.48,310,665,665,Buy,931.71
666,AAPL,10/2/2012,4,22.36,193,666,666,Buy,287.5
667,AAPL,8/15/2012,23,588.45,597,667,667,Sell,559.81
668,GOOGL,1/9/2018,0,614.53,176,668,668,Sell,935.27
669,GOOGL,7/30/2019,22,344.0,140,669,669,Sell,350.57
670,AMZN,12/9/2015,19,1.47,861,670,670,Sell,940.63
671,GOOGL,5/3/2018,0,264.41,481,671,671,Buy,162.39
672,GOOGL,3/20/2010,14,782.3,197,672,672,Buy,684.38
673,AAPL,2/17/2015,7,764.56,807,673,673,Sell,60.27
674,GOOGL,1/29/2014,19,687.38,900,674,674,Buy,847.02
675,GOOGL,12/3/2020,7,842.01,11,675,675,Sell,36.66
676,AMZN,4/28/2015,19,616.16,923,676,676,Buy,444.09
677,AMZN,9/30/2013,11,222.95,340,677,677,Buy,955.48
678,AAPL,10/28/2021,15,397.71,113,678,678,Sell,549.06
679,GOOGL,7/8/2010,22,915.53,775,679,679,Buy,265.17
680,GOOGL,5/4/2019,21,280.37,369,680,680,Buy,136.64
681,AMZN,12/23/2012,20,963.71,785,681,681,Sell,614.85
682,AMZN,10/17/2011,13,357.54,855,682,682,Sell,340.72
683,AAPL,3/20/2011,11,682.41,43,683,683,Buy,493.28
684,AAPL,12/30/2017,5,224.35,128,684,684,Sell,84.36
685,AAPL,1/30/2012,14,551.49,770,685,685,Sell,336.26
686,GOOGL,10/24/2020,19,932.62,726,686,686,Buy,881.46
687,GOOGL,3/4/2015,9,460.41,769,687,687,Sell,877.68
688,AAPL,10/7/2010,4,445.37,577,688,688,Sell,355.08
689,GOOGL,8/8/2014,0,683.34,435,689,689,Buy,126.3
690,AAPL,1/12/2017,2,482.7,600,690,690,Sell,302.05
691,GOOGL,12/2/2020,2,598.84,458,691,691,Sell,214.7
692,AAPL,2/17/2015,3,162.9,621,692,692,Buy,519.89
693,AMZN,8/24/2017,12,123.31,917,693,693,Buy,574.54
694,GOOGL,5/21/2016,15,601.83,797,694,694,Buy,254.96
695,GOOGL,9/9/2019,18,540.52,83,695,695,Sell,776.13
696,AAPL,5/19/2020,15,515.78,804,696,696,Buy,245.77
697,AAPL,8/9/2020,11,133.89,709,697,697,Sell,226.13
698,AMZN,9/10/2014,11,795.86,497,698,698,Sell,183.88
699,AAPL,1/27/2015,12,459.76,355,699,699,Buy,793.59
700,AMZN,3/30/2010,18,662.2,717,700,700,Sell,890.39
701,AMZN,2/20/2020,2,755.75,443,701,701,Sell,509.33
702,AAPL,10/2/2019,4,619.15,970,702,702,Sell,79.94
703,AAPL,4/6/2016,0,365.24,133,703,703,Buy,698.16
704,AAPL,1/6/2020,15,552.45,497,704,704,Buy,953.65
705,AMZN,8/7/2016,17,940.52,990,705,705,Sell,703.76
706,GOOGL,5/10/2010,22,488.3,430,706,706,Sell,729.21
707,GOOGL,9/20/2011,5,613.81,822,707,707,Buy,499.16
708,AAPL,12/22/2021,9,24.84,791,708,708,Sell,605.16
709,AAPL,11/19/2012,12,858.63,552,709,709,Buy,939.01
710,AMZN,8/11/2018,14,244.26,299,710,710,Sell,890.03
711,AAPL,5/4/2017,8,222.78,807,711,711,Buy,752.45
712,AAPL,4/12/2011,17,600.26,294,712,712,Sell,68.38
713,GOOGL,8/1/2014,7,250.36,584,713,713,Sell,792.62
714,GOOGL,8/26/2012,17,514.55,632,714,714,Buy,120.64
715,GOOGL,3/2/2019,15,124.11,694,715,715,Sell,879.3
716,AAPL,11/27/2013,21,206.91,231,716,716,Sell,470.69
717,AAPL,5/28/2015,14,121.11,907,717,717,Sell,571.53
718,AAPL,11/12/2016,4,935.89,614,718,718,Sell,936.39
719,AAPL,11/20/2017,13,234.98,875,719,719,Sell,987.42
720,AAPL,1/3/2019,9,600.74,146,720,720,Buy,20.32
721,GOOGL,2/18/2013,12,710.42,523,721,721,Sell,963.81
722,AAPL,9/27/2012,19,162.77,635,722,722,Buy,847.32
723,AAPL,10/5/2010,19,570.16,350,723,723,Sell,63.24
724,GOOGL,7/22/2018,5,311.73,478,724,724,Sell,894.9
725,AMZN,4/10/2010,8,34.34,490,725,725,Sell,409.13
726,GOOGL,5/28/2021,19,302.06,137,726,726,Buy,555.51
727,GOOGL,7/30/2014,23,483.89,424,727,727,Sell,88.65
728,GOOGL,9/25/2020,19,675.73,227,728,728,Buy,659.4
729,GOOGL,2/16/2010,11,871.6,49,729,729,Buy,543.12
730,AMZN,12/18/2010,16,603.27,617,730,730,Buy,189.93
731,AAPL,10/23/2010,20,125.72,55,731,731,Sell,401.43
732,AAPL,4/21/2017,5,34.14,137,732,732,Sell,69.49
733,AAPL,7/6/2010,13,14.58,997,733,733,Sell,569.52
734,GOOGL,9/23/2020,20,574.98,818,734,734,Buy,35.71
735,GOOGL,11/17/2012,2,475.11,452,735,735,Buy,174.14
736,AMZN,3/16/2017,15,227.42,32,736,736,Buy,134.52
737,AAPL,8/5/2020,14,974.86,657,737,737,Sell,160.37
738,AAPL,2/28/2018,17,741.02,576,738,738,Buy,922.32
739,AMZN,1/9/2016,20,992.34,948,739,739,Sell,591.72
740,AMZN,4/14/2010,13,371.95,493,740,740,Buy,897.29
741,AMZN,1/10/2013,12,844.7,525,741,741,Buy,239.27
742,GOOGL,9/21/2012,22,847.39,929,742,742,Buy,508.92
743,AAPL,2/26/2019,20,414.92,43,743,743,Buy,87.52
744,AAPL,4/23/2010,4,594.54,984,744,744,Buy,559.45
745,GOOGL,5/24/2021,6,101.16,56,745,745,Sell,72.59
746,AAPL,6/29/2019,22,783.67,520,746,746,Sell,801.37
747,AMZN,7/26/2018,11,27.69,882,747,747,Buy,317.3
748,AAPL,6/11/2020,16,534.3,76,748,748,Buy,58.39
749,GOOGL,3/9/2011,6,520.42,333,749,749,Buy,447.81
750,AMZN,1/14/2010,15,24.83,272,750,750,Buy,214.54
751,AMZN,9/22/2014,14,454.05,952,751,751,Sell,95.19
752,AAPL,9/30/2010,11,668.14,94,752,752,Sell,465.29
753,GOOGL,9/18/2019,23,286.0,450,753,753,Buy,316.3
754,GOOGL,12/5/2017,4,218.03,181,754,754,Buy,902.52
755,AMZN,8/24/2013,10,289.21,474,755,755,Buy,893.58
756,AAPL,3/8/2014,13,811.09,708,756,756,Buy,969.61
757,GOOGL,7/13/2014,12,824.27,820,757,757,Buy,699.18
758,AMZN,7/3/2014,4,695.46,551,758,758,Buy,342.82
759,GOOGL,3/25/2014,6,622.18,387,759,759,Sell,907.39
760,AMZN,5/17/2019,16,18.82,529,760,760,Buy,898.08
761,AMZN,1/25/2015,4,933.98,345,761,761,Sell,341.27
762,GOOGL,5/3/2014,15,649.29,312,762,762,Sell,170.56
763,AAPL,6/7/2014,8,337.49,102,763,763,Buy,232.15
764,AMZN,7/10/2012,16,270.65,17,764,764,Sell,152.87
765,GOOGL,11/18/2017,16,662.71,985,765,765,Sell,648.98
766,AMZN,7/24/2018,11,712.78,365,766,766,Buy,998.58
767,AAPL,8/21/2018,23,210.15,43,767,767,Buy,486.86
768,AMZN,11/8/2014,12,222.12,441,768,768,Sell,529.98
769,AMZN,11/7/2014,5,946.92,363,769,769,Sell,693.42
770,AMZN,5/19/2013,7,326.77,878,770,770,Sell,48.95
771,GOOGL,5/6/2013,10,506.8,73,771,771,Sell,806.22
772,AAPL,4/21/2011,18,247.77,462,772,772,Sell,706.42
773,AAPL,11/7/2015,18,663.34,456,773,773,Buy,636.9
774,AMZN,8/15/2021,13,458.05,161,774,774,Sell,168.86
775,AAPL,4/16/2010,8,729.74,115,775,775,Sell,701.78
776,AMZN,8/12/2010,15,49.28,770,776,776,Buy,825.95
777,AAPL,9/17/2020,1,684.69,311,777,777,Buy,935.25
778,GOOGL,7/15/2020,5,971.78,430,778,778,Buy,917.62
779,AMZN,3/11/2017,3,530.64,522,779,779,Sell,655.4
780,AMZN,9/14/2010,7,887.18,789,780,780,Buy,525.22
781,GOOGL,12/26/2021,19,151.0,990,781,781,Sell,940.7
782,AAPL,7/14/2011,20,801.9,518,782,782,Buy,930.74
783,AAPL,5/22/2017,0,370.24,829,783,783,Buy,127.09
784,AMZN,11/18/2010,1,274.89,553,784,784,Buy,123.08
785,AAPL,2/24/2012,22,764.74,948,785,785,Buy,797.67
786,GOOGL,8/29/2014,7,411.66,810,786,786,Sell,4.05
787,AMZN,11/21/2020,7,217.08,511,787,787,Buy,221.54
788,AAPL,4/28/2019,8,81.16,531,788,788,Buy,683.49
789,GOOGL,12/22/2018,14,616.22,605,789,789,Buy,210.77
790,GOOGL,9/15/2017,13,677.73,830,790,790,Sell,670.24
791,AAPL,10/27/2021,13,983.84,491,791,791,Sell,788.7
792,GOOGL,11/26/2020,8,195.78,2,792,792,Sell,308.47
793,AAPL,5/16/2016,9,531.13,893,793,793,Buy,327.17
794,AMZN,12/12/2021,0,4.37,885,794,794,Buy,700.27
795,AMZN,4/30/2010,19,949.63,223,795,795,Buy,965.24
796,AMZN,9/25/2012,3,817.78,78,796,796,Sell,577.7
797,AAPL,12/27/2017,23,181.95,709,797,797,Sell,106.63
798,GOOGL,8/28/2016,19,870.9,422,798,798,Sell,43.66
799,AAPL,6/10/2013,15,143.61,826,799,799,Sell,599.89
800,AMZN,10/31/2019,14,566.55,760,800,800,Buy,82.87
801,AAPL,12/3/2010,5,598.37,162,801,801,Buy,823.99
802,GOOGL,4/28/2014,18,892.16,459,802,802,Sell,702.14
803,GOOGL,8/5/2017,8,415.91,800,803,803,Buy,530.3
804,GOOGL,1/19/2011,18,877.91,199,804,804,Sell,798.73
805,GOOGL,2/27/2014,7,723.08,974,805,805,Sell,65.93
806,AMZN,5/31/2017,6,42.71,852,806,806,Sell,934.04
807,AAPL,7/28/2011,9,142.31,268,807,807,Buy,501.37
808,GOOGL,6/17/2012,4,253.32,856,808,808,Buy,917.08
809,GOOGL,6/14/2019,18,865.75,734,809,809,Sell,972.02
810,GOOGL,2/10/2011,14,433.76,79,810,810,Buy,58.34
811,AAPL,2/2/2010,12,774.4,438,811,811,Buy,100.77
812,AAPL,5/12/2018,0,808.09,254,812,812,Buy,697.49
813,AAPL,7/30/2019,17,666.52,606,813,813,Sell,8.04
814,AMZN,9/11/2010,0,187.93,841,814,814,Buy,621.31
815,GOOGL,2/9/2018,12,376.69,906,815,815,Sell,647.91
816,AAPL,1/2/2013,6,942.78,61,816,816,Buy,347.1
817,AAPL,2/5/2013,5,500.06,283,817,817,Buy,559.28
818,AAPL,6/6/2017,15,492.43,414,818,818,Buy,49.0
819,AAPL,8/19/2012,11,816.14,794,819,819,Buy,959.59
820,GOOGL,1/16/2013,13,357.45,559,820,820,Buy,104.33
821,AMZN,3/1/2021,8,44.55,896,821,821,Buy,456.94
822,AAPL,3/6/2019,10,352.54,553,822,822,Buy,246.49
823,AMZN,6/17/2012,3,82.27,892,823,823,Buy,340.36
824,GOOGL,6/10/2010,15,736.3,452,824,824,Sell,798.32
825,GOOGL,12/19/2018,22,95.63,183,825,825,Sell,184.86
826,AMZN,2/16/2017,23,214.64,411,826,826,Sell,248.01
827,AAPL,9/11/2014,8,161.96,872,827,827,Sell,453.13
828,AMZN,11/26/2017,11,146.4,411,828,828,Buy,820.27
829,GOOGL,11/2/2015,5,357.46,483,829,829,Sell,371.58
830,AAPL,3/14/2021,7,151.83,232,830,830,Buy,912.85
831,GOOGL,10/24/2017,21,740.74,313,831,831,Sell,891.69
832,AMZN,12/4/2012,7,356.73,519,832,832,Buy,929.94
833,AAPL,7/22/2020,20,979.16,774,833,833,Buy,954.78
834,GOOGL,2/12/2013,6,456.3,604,834,834,Buy,319.28
835,AMZN,4/30/2018,19,961.82,555,835,835,Buy,144.6
836,GOOGL,12/2/2013,20,674.04,189,836,836,Sell,530.91
837,GOOGL,1/1/2019,15,679.19,401,837,837,Buy,964.27
838,AMZN,2/9/2017,10,900.86,707,838,838,Buy,104.89
839,AAPL,2/28/2012,3,663.67,41,839,839,Buy,599.52
840,AAPL,2/15/2011,0,604.11,588,840,840,Buy,659.21
841,AAPL,7/25/2019,20,28.73,525,841,841,Buy,895.2
842,AMZN,7/15/2018,3,340.3,995,842,842,Buy,818.42
843,AMZN,12/28/2021,5,494.93,286,843,843,Sell,207.0
844,GOOGL,12/27/2018,21,4.17,980,844,844,Sell,359.42
845,AAPL,6/12/2011,4,77.4,933,845,845,Sell,131.51
846,GOOGL,11/7/2015,19,724.37,311,846,846,Sell,189.82
847,AAPL,8/26/2011,17,503.63,828,847,847,Sell,368.61
848,GOOGL,7/17/2013,22,424.04,504,848,848,Buy,163.79
849,AAPL,7/28/2019,15,249.3,700,849,849,Sell,260.56
850,GOOGL,5/13/2010,3,617.76,807,850,850,Buy,405.83
851,AMZN,5/3/2013,11,726.18,939,851,851,Sell,571.87
852,GOOGL,9/13/2012,11,395.73,1,852,852,Sell,142.9
853,AMZN,5/20/2016,16,875.75,947,853,853,Buy,545.36
854,AAPL,6/20/2015,0,852.27,148,854,854,Buy,832.51
855,AMZN,7/27/2020,18,565.38,678,855,855,Buy,944.76
856,GOOGL,4/1/2015,5,981.76,218,856,856,Sell,798.39
857,GOOGL,5/13/2017,19,144.21,352,857,857,Buy,472.44
858,GOOGL,11/4/2016,9,751.44,364,858,858,Buy,78.14
859,GOOGL,3/8/2018,22,357.54,300,859,859,Sell,197.12
860,AMZN,6/28/2016,6,273.3,121,860,860,Buy,866.3
861,AAPL,5/28/2013,22,697.91,274,861,861,Sell,907.89
862,GOOGL,11/12/2012,10,418.91,39,862,862,Sell,974.17
863,AMZN,2/28/2013,19,753.6,690,863,863,Sell,451.24
864,GOOGL,5/2/2010,18,687.63,516,864,864,Buy,766.25
865,AAPL,10/15/2021,18,517.64,291,865,865,Buy,288.35
866,GOOGL,2/5/2014,21,88.2,618,866,866,Buy,890.34
867,AMZN,4/2/2020,5,573.27,810,867,867,Buy,238.65
868,GOOGL,5/22/2021,22,614.2,326,868,868,Sell,809.36
869,AAPL,4/8/2011,9,888.42,587,869,869,Buy,56.09
870,AAPL,7/18/2016,14,601.78,411,870,870,Buy,848.39
871,AAPL,1/22/2011,1,467.18,106,871,871,Buy,599.18
872,GOOGL,6/20/2016,14,411.95,444,872,872,Buy,266.24
873,AAPL,5/24/2016,6,525.45,825,873,873,Sell,140.82
874,AMZN,7/31/2014,15,197.51,512,874,874,Buy,607.39
875,AMZN,5/9/2011,15,693.81,973,875,875,Sell,281.48
876,GOOGL,9/16/2019,15,212.36,951,876,876,Sell,655.44
877,AAPL,4/22/2020,19,86.16,419,877,877,Buy,347.55
878,GOOGL,8/5/2011,5,678.13,88,878,878,Buy,127.76
879,GOOGL,5/27/2012,9,518.34,209,879,879,Sell,764.0
880,GOOGL,3/13/2021,16,494.88,347,880,880,Buy,677.05
881,GOOGL,1/24/2021,4,64.06,522,881,881,Sell,982.3
882,AMZN,3/19/2016,15,558.8,261,882,882,Buy,576.41
883,AMZN,1/23/2010,18,463.15,230,883,883,Buy,77.78
884,GOOGL,1/7/2014,8,745.31,932,884,884,Sell,740.0
885,GOOGL,11/5/2021,0,97.83,453,885,885,Buy,18.22
886,AMZN,7/23/2017,8,117.26,537,886,886,Buy,931.74
887,GOOGL,1/6/2016,23,7.63,902,887,887,Buy,44.5
888,AMZN,12/28/2010,4,405.45,977,888,888,Buy,562.46
889,AAPL,5/23/2013,20,569.92,388,889,889,Sell,793.52
890,GOOGL,6/29/2012,7,830.34,872,890,890,Sell,80.31
891,GOOGL,7/15/2013,13,568.27,4,891,891,Sell,256.99
892,AMZN,5/24/2019,5,47.15,624,892,892,Buy,528.28
893,GOOGL,8/9/2019,2,691.63,834,893,893,Buy,125.09
894,AMZN,5/21/2019,0,496.15,453,894,894,Buy,925.72
895,GOOGL,6/6/2010,16,27.36,565,895,895,Sell,530.46
896,AMZN,2/13/2017,15,653.07,594,896,896,Sell,590.27
897,AMZN,5/3/2015,5,328.33,57,897,897,Sell,919.98
898,AAPL,12/27/2021,15,469.51,509,898,898,Buy,651.41
899,AMZN,5/8/2012,2,463.76,320,899,899,Buy,367.72
900,AAPL,1/24/2021,7,617.28,694,900,900,Buy,727.76
901,AAPL,6/29/2013,21,490.28,217,901,901,Sell,738.89
902,AMZN,1/28/2014,10,815.29,636,902,902,Sell,496.19
903,GOOGL,7/21/2019,20,489.45,548,903,903,Sell,325.79
904,AMZN,5/12/2015,22,693.67,328,904,904,Buy,559.73
905,GOOGL,2/9/2012,21,739.67,497,905,905,Sell,85.31
906,AMZN,9/21/2015,2,674.55,883,906,906,Sell,617.91
907,AMZN,10/20/2020,1,794.32,485,907,907,Sell,946.15
908,AMZN,1/9/2021,4,215.51,772,908,908,Buy,687.37
909,AMZN,3/12/2011,9,23.75,606,909,909,Sell,516.63
910,AMZN,12/2/2012,8,365.96,86,910,910,Sell,711.39
911,AMZN,4/23/2017,15,943.1,179,911,911,Buy,478.84
912,GOOGL,5/6/2012,20,497.29,658,912,912,Sell,716.36
913,GOOGL,5/14/2020,21,894.89,613,913,913,Sell,7.61
914,AMZN,9/15/2020,14,582.36,704,914,914,Buy,68.97
915,AMZN,1/4/2018,13,130.61,279,915,915,Sell,648.41
916,GOOGL,9/10/2010,8,571.58,225,916,916,Sell,910.2
917,GOOGL,5/6/2012,20,146.59,384,917,917,Buy,82.32
918,AAPL,3/6/2020,3,379.15,26,918,918,Buy,48.5
919,AMZN,2/28/2016,21,322.97,502,919,919,Sell,54.06
920,AAPL,9/6/2018,20,783.14,232,920,920,Sell,18.45
921,AAPL,8/13/2018,17,599.68,142,921,921,Sell,432.64
922,GOOGL,9/17/2021,6,927.68,74,922,922,Buy,651.54
923,AMZN,1/29/2018,3,621.62,458,923,923,Sell,141.18
924,AAPL,4/30/2014,2,680.29,361,924,924,Buy,756.47
925,AAPL,2/18/2020,21,785.65,52,925,925,Buy,169.13
926,GOOGL,8/28/2019,20,78.41,907,926,926,Sell,494.95
927,GOOGL,8/28/2016,22,585.12,778,927,927,Sell,824.0
928,AMZN,4/27/2013,18,172.87,517,928,928,Sell,83.73
929,AAPL,5/25/2018,12,441.25,567,929,929,Buy,147.63
930,GOOGL,6/10/2016,2,814.49,171,930,930,Buy,66.59
931,AMZN,8/4/2018,22,669.99,194,931,931,Sell,276.96
932,AAPL,8/29/2013,7,319.55,419,932,932,Buy,809.81
933,AAPL,4/6/2016,2,90.35,850,933,933,Buy,2.36
934,AAPL,10/17/2011,16,254.75,598,934,934,Buy,990.3
935,AMZN,2/11/2019,4,162.58,527,935,935,Buy,417.09
936,GOOGL,12/25/2020,23,24.49,326,936,936,Sell,313.42
937,AAPL,12/28/2010,20,910.4,425,937,937,Buy,996.19
938,GOOGL,12/11/2016,21,832.35,78,938,938,Buy,321.85
939,GOOGL,2/26/2014,6,572.91,341,939,939,Buy,352.02
940,AMZN,9/13/2016,7,998.56,889,940,940,Buy,38.61
941,AMZN,11/9/2020,18,435.57,918,941,941,Sell,522.59
942,GOOGL,2/6/2017,12,154.54,884,942,942,Sell,344.97
943,AAPL,9/20/2019,5,827.45,436,943,943,Buy,529.25
944,AMZN,7/12/2014,13,342.04,40,944,944,Sell,432.52
945,AAPL,12/15/2018,2,782.25,117,945,945,Sell,609.19
946,GOOGL,10/11/2010,4,612.87,553,946,946,Sell,736.53
947,GOOGL,8/25/2013,13,167.71,21,947,947,Sell,581.48
948,AMZN,11/27/2016,5,576.19,261,948,948,Sell,124.37
949,GOOGL,11/20/2014,22,184.76,240,949,949,Sell,650.43
950,AAPL,6/1/2014,9,430.57,26,950,950,Buy,95.81
951,AMZN,12/29/2017,17,985.35,546,951,951,Sell,343.88
952,GOOGL,11/30/2011,1,343.33,717,952,952,Buy,264.43
953,GOOGL,2/6/2013,11,433.34,747,953,953,Sell,629.94
954,GOOGL,10/30/2012,15,296.12,329,954,954,Buy,723.49
955,AAPL,4/10/2016,17,324.27,622,955,955,Sell,730.24
956,AMZN,1/7/2015,6,278.1,609,956,956,Sell,657.08
957,AAPL,5/31/2010,6,136.61,426,957,957,Buy,7.27
958,AAPL,7/22/2010,10,0.57,402,958,958,Buy,749.25
959,AAPL,7/20/2020,13,193.36,765,959,959,Sell,455.41
960,GOOGL,4/15/2019,19,516.56,911,960,960,Buy,79.16
961,GOOGL,4/17/2013,15,226.76,262,961,961,Buy,757.01
962,AMZN,12/3/2018,1,37.09,808,962,962,Buy,134.87
963,AMZN,12/27/2015,6,480.15,656,963,963,Buy,46.27
964,GOOGL,5/15/2011,21,314.0,673,964,964,Buy,742.56
965,GOOGL,5/4/2014,1,504.66,868,965,965,Sell,362.72
966,AAPL,6/15/2016,13,248.79,219,966,966,Sell,590.36
967,AMZN,5/25/2012,8,714.99,581,967,967,Buy,675.38
968,GOOGL,10/2/2019,12,108.52,616,968,968,Buy,58.19
969,GOOGL,6/12/2018,17,538.54,622,969,969,Buy,135.51
970,AMZN,10/4/2011,6,855.07,655,970,970,Buy,616.95
971,GOOGL,7/31/2012,7,160.82,816,971,971,Buy,679.89
972,GOOGL,12/10/2011,23,155.17,827,972,972,Buy,436.18
973,GOOGL,6/14/2011,13,855.14,898,973,973,Sell,701.4
974,AAPL,5/21/2017,3,301.11,116,974,974,Sell,910.31
975,AAPL,6/3/2021,2,82.88,402,975,975,Buy,999.37
976,AAPL,4/9/2014,7,108.03,496,976,976,Buy,536.12
977,AMZN,5/11/2019,9,760.69,250,977,977,Buy,717.16
978,AMZN,1/13/2015,19,743.76,307,978,978,Buy,196.43
979,AAPL,9/12/2011,17,266.02,852,979,979,Buy,587.77
980,AAPL,10/5/2015,20,896.28,735,980,980,Buy,713.88
981,GOOGL,9/27/2014,9,560.13,156,981,981,Sell,128.47
982,GOOGL,5/19/2011,13,547.74,486,982,982,Buy,54.06
983,AMZN,3/21/2019,5,690.6,258,983,983,Sell,418.02
984,GOOGL,10/28/2014,1,630.28,9,984,984,Buy,528.4
985,AAPL,7/20/2019,8,149.04,498,985,985,Sell,882.0
986,GOOGL,4/13/2013,2,89.15,39,986,986,Buy,728.54
987,AAPL,11/13/2021,16,439.35,895,987,987,Buy,621.21
988,AMZN,7/22/2014,22,15.93,345,988,988,Buy,794.35
989,AAPL,10/13/2016,9,10.11,615,989,989,Buy,863.3
990,AMZN,7/25/2019,9,344.01,576,990,990,Buy,100.53
991,GOOGL,7/10/2016,15,106.47,167,991,991,Sell,831.89
992,GOOGL,5/27/2018,18,597.67,730,992,992,Sell,933.3
993,AMZN,4/30/2012,21,683.18,572,993,993,Sell,947.71
994,AMZN,9/9/2011,6,428.01,621,994,994,Buy,356.49
995,AMZN,2/18/2013,12,933.27,923,995,995,Sell,966.66
996,AMZN,3/13/2013,14,48.13,710,996,996,Sell,171.36
997,AAPL,8/10/2010,19,944.69,82,997,997,Buy,729.88
998,GOOGL,11/30/2021,15,188.91,308,998,998,Sell,746.38
999,AMZN,11/1/2015,10,424.83,151,999,999,Sell,370.01
1000,GOOGL,9/10/2012,9,930.96,36,1000,1000,Buy,723.12
